{
  "count": 537,
  "next": "https://lldev.thespacedevs.com/2.2.0/spacecraft/?limit=10&offset=10",
  "previous": null,
  "results": [
    {
      "id": 2,
      "url": "https://lldev.thespacedevs.com/2.2.0/spacecraft/2/",
      "name": "Mercury No.7",
      "serial_number": "7",
      "status": {
        "id": 4,
        "name": "Single Use"
      },
      "description": "Mercury No.7 is the Mercury capsule used for the Mercury-Redstone 3 - callsign \"Freedom 7\" - mission launched on May 5, 1961 and piloted by astronaut Alan Shepard.",
      "spacecraft_config": {
        "id": 11,
        "url": "https://lldev.thespacedevs.com/2.2.0/config/spacecraft/11/",
        "name": "Mercury",
        "type": {
          "id": 1,
          "name": "Unknown"
        },
        "agency": {
          "id": 44,
          "url": "https://lldev.thespacedevs.com/2.2.0/agencies/44/",
          "name": "National Aeronautics and Space Administration",
          "type": "Government"
        },
        "in_use": false,
        "image_url": "https://spacelaunchnow-prod-east.nyc3.digitaloceanspaces.com/media/orbiter_images/mercury_image_20190207032519.jpeg"
      }
    },
    {
      "id": 3,
      "url": "https://lldev.thespacedevs.com/2.2.0/spacecraft/3/",
      "name": "Mercury No.11",
      "serial_number": "11",
      "status": {
        "id": 4,
        "name": "Single Use"
      },
      "description": "Mercury No.11 is the Mercury capsule used for the Mercury-Redstone 4 - callsign \"Liberty Bell 7\" - mission launched on July 21, 1961 and piloted by astronaut Virgil \"Gus\" Grissom.",
      "spacecraft_config": {
        "id": 11,
        "url": "https://lldev.thespacedevs.com/2.2.0/config/spacecraft/11/",
        "name": "Mercury",
        "type": {
          "id": 1,
          "name": "Unknown"
        },
        "agency": {
          "id": 44,
          "url": "https://lldev.thespacedevs.com/2.2.0/agencies/44/",
          "name": "National Aeronautics and Space Administration",
          "type": "Government"
        },
        "in_use": false,
        "image_url": "https://spacelaunchnow-prod-east.nyc3.digitaloceanspaces.com/media/orbiter_images/mercury_image_20190207032519.jpeg"
      }
    },
    {
      "id": 4,
      "url": "https://lldev.thespacedevs.com/2.2.0/spacecraft/4/",
      "name": "Mercury No.13",
      "serial_number": "13",
      "status": {
        "id": 4,
        "name": "Single Use"
      },
      "description": "Mercury No.13 is the Mercury capsule used for the Mercury-Atlas 6 - callsign \"Friendship 7\" - mission launched on February 20, 1962 and piloted by astronaut John Glenn.",
      "spacecraft_config": {
        "id": 11,
        "url": "https://lldev.thespacedevs.com/2.2.0/config/spacecraft/11/",
        "name": "Mercury",
        "type": {
          "id": 1,
          "name": "Unknown"
        },
        "agency": {
          "id": 44,
          "url": "https://lldev.thespacedevs.com/2.2.0/agencies/44/",
          "name": "National Aeronautics and Space Administration",
          "type": "Government"
        },
        "in_use": false,
        "image_url": "https://spacelaunchnow-prod-east.nyc3.digitaloceanspaces.com/media/orbiter_images/mercury_image_20190207032519.jpeg"
      }
    },
    {
      "id": 5,
      "url": "https://lldev.thespacedevs.com/2.2.0/spacecraft/5/",
      "name": "Mercury No.18",
      "serial_number": "18",
      "status": {
        "id": 4,
        "name": "Single Use"
      },
      "description": "Mercury No.18 is the Mercury capsule used for the Mercury-Atlas 7  - callsign \"Aurora 7\" - mission launched on May 24, 1962 and piloted by astronaut Scott Carpenter.",
      "spacecraft_config": {
        "id": 11,
        "url": "https://lldev.thespacedevs.com/2.2.0/config/spacecraft/11/",
        "name": "Mercury",
        "type": {
          "id": 1,
          "name": "Unknown"
        },
        "agency": {
          "id": 44,
          "url": "https://lldev.thespacedevs.com/2.2.0/agencies/44/",
          "name": "National Aeronautics and Space Administration",
          "type": "Government"
        },
        "in_use": false,
        "image_url": "https://spacelaunchnow-prod-east.nyc3.digitaloceanspaces.com/media/orbiter_images/mercury_image_20190207032519.jpeg"
      }
    },
    {
      "id": 6,
      "url": "https://lldev.thespacedevs.com/2.2.0/spacecraft/6/",
      "name": "Mercury No.16",
      "serial_number": "16",
      "status": {
        "id": 4,
        "name": "Single Use"
      },
      "description": "Mercury No.16 is the Mercury capsule used for the Mercury-Atlas 8 - callsign \"Sigma 7\" - mission launched on October 3, 1962 and piloted by astronaut Walter M. Schirra Jr.",
      "spacecraft_config": {
        "id": 11,
        "url": "https://lldev.thespacedevs.com/2.2.0/config/spacecraft/11/",
        "name": "Mercury",
        "type": {
          "id": 1,
          "name": "Unknown"
        },
        "agency": {
          "id": 44,
          "url": "https://lldev.thespacedevs.com/2.2.0/agencies/44/",
          "name": "National Aeronautics and Space Administration",
          "type": "Government"
        },
        "in_use": false,
        "image_url": "https://spacelaunchnow-prod-east.nyc3.digitaloceanspaces.com/media/orbiter_images/mercury_image_20190207032519.jpeg"
      }
    },
    {
      "id": 7,
      "url": "https://lldev.thespacedevs.com/2.2.0/spacecraft/7/",
      "name": "Mercury No.20",
      "serial_number": "20",
      "status": {
        "id": 4,
        "name": "Single Use"
      },
      "description": "Mercury No.20 is the Mercury capsule used for the Mercury-Atlas 9 - callsign \"Faith 7\" - mission launched on May 15, 1963 and piloted by astronaut Gordon Cooper.",
      "spacecraft_config": {
        "id": 11,
        "url": "https://lldev.thespacedevs.com/2.2.0/config/spacecraft/11/",
        "name": "Mercury",
        "type": {
          "id": 1,
          "name": "Unknown"
        },
        "agency": {
          "id": 44,
          "url": "https://lldev.thespacedevs.com/2.2.0/agencies/44/",
          "name": "National Aeronautics and Space Administration",
          "type": "Government"
        },
        "in_use": false,
        "image_url": "https://spacelaunchnow-prod-east.nyc3.digitaloceanspaces.com/media/orbiter_images/mercury_image_20190207032519.jpeg"
      }
    },
    {
      "id": 48,
      "url": "https://lldev.thespacedevs.com/2.2.0/spacecraft/48/",
      "name": "Soyuz MS-03",
      "serial_number": "Soyuz MS 11F732A48 #733",
      "status": {
        "id": 4,
        "name": "Single Use"
      },
      "description": "Soyuz MS-03 was a Soyuz spaceflight launched on 17 November 2016. It transported three members of the Expedition 50 crew to the International Space Station. The crew consisted of Oleg Novitskiy, Thomas Pesquet, and Peggy A. Whitson.",
      "spacecraft_config": {
        "id": 1,
        "url": "https://lldev.thespacedevs.com/2.2.0/config/spacecraft/1/",
        "name": "Soyuz",
        "type": {
          "id": 1,
          "name": "Unknown"
        },
        "agency": {
          "id": 63,
          "url": "https://lldev.thespacedevs.com/2.2.0/agencies/63/",
          "name": "Russian Federal Space Agency (ROSCOSMOS)",
          "type": "Government"
        },
        "in_use": true,
        "image_url": "https://spacelaunchnow-prod-east.nyc3.digitaloceanspaces.com/media/orbiter_images/soyuz_image_20201015191152.jpg"
      }
    },
    {
      "id": 10,
      "url": "https://lldev.thespacedevs.com/2.2.0/spacecraft/10/",
      "name": "Mercury No.5",
      "serial_number": "5",
      "status": {
        "id": 4,
        "name": "Single Use"
      },
      "description": "Mercury No.5 is the Mercury capsule used for the Mercury-Redstone 2 mission launched on January 31, 1961 with a chimpanzee onboard.",
      "spacecraft_config": {
        "id": 11,
        "url": "https://lldev.thespacedevs.com/2.2.0/config/spacecraft/11/",
        "name": "Mercury",
        "type": {
          "id": 1,
          "name": "Unknown"
        },
        "agency": {
          "id": 44,
          "url": "https://lldev.thespacedevs.com/2.2.0/agencies/44/",
          "name": "National Aeronautics and Space Administration",
          "type": "Government"
        },
        "in_use": false,
        "image_url": "https://spacelaunchnow-prod-east.nyc3.digitaloceanspaces.com/media/orbiter_images/mercury_image_20190207032519.jpeg"
      }
    },
    {
      "id": 9,
      "url": "https://lldev.thespacedevs.com/2.2.0/spacecraft/9/",
      "name": "Mercury No.2",
      "serial_number": "2",
      "status": {
        "id": 4,
        "name": "Single Use"
      },
      "description": "Mercury No.2 is the Mercury capsule used for the Mercury-Redsone 1 mission which failed on launch.",
      "spacecraft_config": {
        "id": 11,
        "url": "https://lldev.thespacedevs.com/2.2.0/config/spacecraft/11/",
        "name": "Mercury",
        "type": {
          "id": 1,
          "name": "Unknown"
        },
        "agency": {
          "id": 44,
          "url": "https://lldev.thespacedevs.com/2.2.0/agencies/44/",
          "name": "National Aeronautics and Space Administration",
          "type": "Government"
        },
        "in_use": false,
        "image_url": "https://spacelaunchnow-prod-east.nyc3.digitaloceanspaces.com/media/orbiter_images/mercury_image_20190207032519.jpeg"
      }
    },
    {
      "id": 11,
      "url": "https://lldev.thespacedevs.com/2.2.0/spacecraft/11/",
      "name": "Gemini SC1",
      "serial_number": "1",
      "status": {
        "id": 4,
        "name": "Single Use"
      },
      "description": "Gemini SC1 is the Gemini capsule used for the Gemini 1 mission launched on April 8, 1964.",
      "spacecraft_config": {
        "id": 12,
        "url": "https://lldev.thespacedevs.com/2.2.0/config/spacecraft/12/",
        "name": "Gemini",
        "type": {
          "id": 1,
          "name": "Unknown"
        },
        "agency": {
          "id": 44,
          "url": "https://lldev.thespacedevs.com/2.2.0/agencies/44/",
          "name": "National Aeronautics and Space Administration",
          "type": "Government"
        },
        "in_use": false,
        "image_url": "https://spacelaunchnow-prod-east.nyc3.digitaloceanspaces.com/media/orbiter_images/gemini_image_20190207032517.jpeg"
      }
    }
  ]
}